{
    "description": "AdoptOpenJDK 8 JRE with Eclipse OpenJ9 JVM (Nightly builds)",
    "homepage": "https://adoptopenjdk.net",
    "version": "201812271104",
    "license": "GPL-2.0-with-classpath-exception",
    "architecture": {
        "64bit": {
            "url": "https://github.com/AdoptOpenJDK/openjdk8-binaries/releases/download/jdk8u-2018-12-27-11-04/OpenJDK8U-jre_x64_windows_openj9_2018-12-27-11-04.zip",
            "hash": "1e1e21d39dd1d02ded34366f8030ffdef6ea28bbe5b4c16576331f45f8157be5"
        }
    },
    "extract_to": "tmp",
    "installer": {
        "script": [
            "gci -dir \"$dir\\tmp\" | % { mv \"$dir\\tmp\\$_\\*\" \"$dir\" }",
            "rm -r \"$dir\\tmp\""
        ]
    },
    "env_add_path": "bin",
    "env_set": {
        "JAVA_HOME": "$dir"
    },
    "checkver": {
        "url": "https://api.adoptopenjdk.net/v2/info/nightly/openjdk8?openjdk_impl=openj9&os=windows&arch=x64&release=latest&type=jre",
        "jp": "$.binaries[0].binary_link",
        "re": "https://github.com/(?<url>.*?(?<year>[\\d]{4})-(?<month>[\\d]{2})-(?<day>[\\d]{2})-(?<hour>[\\d]{2})-(?<minute>[\\d]{2}).*?).zip",
        "replace": "${year}${month}${day}${hour}${minute}"
    },
    "autoupdate": {
        "architecture": {
            "64bit": {
                "url": "https://github.com/$matchUrl.zip"
            }
        },
        "hash": {
            "url": "$url.sha256.txt",
            "find": "^([a-fA-F0-9]+)\\s"
        }
    }
}
